BST680 2024 - Basics of Data Visualization
…
Star Wars - Begin by Looking at the Data

starwars is a tibble, a special type of data frame that’s tidy

#The object starwars is both a "data.frame" (data frame) and a "tbl" (tibble)
class(starwars)
#> [1] "tbl_df"     "tbl"        "data.frame"

Printing a tibble to the console gives expanded dataset information

print(starwars, n=5)

# A tibble: 87 × 14
  name      height  mass hair_color skin_color eye_color birth_year sex   gender
  <chr>      <int> <dbl> <chr>      <chr>      <chr>          <dbl> <chr> <chr> 
1 Luke Sky…    172    77 blond      fair       blue            19   male  mascu…
2 C-3PO        167    75 <NA>       gold       yellow         112   none  mascu…
3 R2-D2         96    32 <NA>       white, bl… red             33   none  mascu…
4 Darth Va…    202   136 none       white      yellow          41.9 male  mascu…
5 Leia Org…    150    49 brown      light      brown           19   fema… femin…
# ℹ 82 more rows
# ℹ 5 more variables: homeworld <chr>, species <chr>, films <list>,
#   vehicles <list>, starships <list>
…
