BST680 2024 - Data visualization tools
…
Exercise 3

create two datasets: left_label and right_label:

left_label should contain the rows of your summarized data from exercise 1 that are on the left hand side of the plot from exercise 2.

right_label should contain the rows of your summarized data from exercise 1 that are on the right hand side of the plot from exercise 2.

# Your code goes here

Your solution should look like this:

[[1]]
# A tibble: 23 × 3
# Groups:   city [23]
   city          gender           revenue
   <fct>         <fct>              <dbl>
 1 Acapulco      Female customers   2566.
 2 Bellingham    Female customers    453.
 3 Beverly Hills Female customers   5050.
 4 Bremerton     Female customers   5270.
 5 Camacho       Male customers     2154.
 6 Guadalajara   Male customers      232.
 7 Hidalgo       Male customers     3952.
 8 Los Angeles   Female customers   6015.
 9 Merida        Male customers     3970.
10 Mexico City   Male customers     1233.
# ℹ 13 more rows

[[2]]
# A tibble: 23 × 3
# Groups:   city [23]
   city          gender           revenue
   <fct>         <fct>              <dbl>
 1 Acapulco      Male customers     2596.
 2 Bellingham    Male customers      539.
 3 Beverly Hills Male customers     5270.
 4 Bremerton     Male customers     5705 
 5 Camacho       Female customers   3643.
 6 Guadalajara   Female customers    291.
 7 Hidalgo       Female customers   7361.
 8 Los Angeles   Male customers     6282.
 9 Merida        Female customers   4770.
10 Mexico City   Female customers   1255.
# ℹ 13 more rows
…
