BST680 2024 - Tidying and Reshaping Data
…
https://knowledge.dataiku.com/

Wide vs Long - Wide Data

…or time series data like the billboard dataset

# A tibble: 317 × 79
  artist      track date.entered   wk1   wk2   wk3   wk4   wk5   wk6   wk7   wk8
  <chr>       <chr> <date>       <dbl> <dbl> <dbl> <dbl> <dbl> <dbl> <dbl> <dbl>
1 2 Pac       Baby… 2000-02-26      87    82    72    77    87    94    99    NA
2 2Ge+her     The … 2000-09-02      91    87    92    NA    NA    NA    NA    NA
3 3 Doors Do… Kryp… 2000-04-08      81    70    68    67    66    57    54    53
4 3 Doors Do… Loser 2000-10-21      76    76    72    69    67    65    55    59
5 504 Boyz    Wobb… 2000-04-15      57    34    25    17    17    31    36    49
# ℹ 312 more rows
# ℹ 68 more variables: wk9 <dbl>, wk10 <dbl>, wk11 <dbl>, wk12 <dbl>,
#   wk13 <dbl>, wk14 <dbl>, wk15 <dbl>, wk16 <dbl>, wk17 <dbl>, wk18 <dbl>,
#   wk19 <dbl>, wk20 <dbl>, wk21 <dbl>, wk22 <dbl>, wk23 <dbl>, wk24 <dbl>,
#   wk25 <dbl>, wk26 <dbl>, wk27 <dbl>, wk28 <dbl>, wk29 <dbl>, wk30 <dbl>,
#   wk31 <dbl>, wk32 <dbl>, wk33 <dbl>, wk34 <dbl>, wk35 <dbl>, wk36 <dbl>,
#   wk37 <dbl>, wk38 <dbl>, wk39 <dbl>, wk40 <dbl>, wk41 <dbl>, wk42 <dbl>, …
…
The arguments were hard to remember

Function support for transforming was limited in scope

In a later update, pivot_wider() and pivot_longer() were added to supersede spread() and gather()

While spread() and gather() still function within tidyr and can be used, our focus is on the pivot_ family

Pivot - Some Long Covid data

Today we have some case and and death data on COVID-19 by state and day from the NY times called cv19

print(cv19, n=7)

# A tibble: 61,942 × 4
  date       state      cases deaths
  <date>     <chr>      <dbl>  <dbl>
1 2020-01-21 Washington     1      0
2 2020-01-22 Washington     1      0
3 2020-01-23 Washington     1      0
4 2020-01-24 Illinois       1      0
5 2020-01-24 Washington     1      0
6 2020-01-25 California     1      0
7 2020-01-25 Illinois       1      0
# ℹ 61,935 more rows
…
Pivot - Using pivot_wider()

pivot_wider() does the inverse, adding columns and reducing rows

NHANES is a good example since each row is an exam year

# A tibble: 30 × 4
# Groups:   exam, sex [6]
   exam  sex    race_ethnicity     bp_sys_mmhg
   <fct> <fct>  <fct>                    <dbl>
 1 2013  Female Non-Hispanic White        121.
 2 2013  Female Non-Hispanic Black        125.
 3 2013  Female Non-Hispanic Asian        118.
 4 2013  Female Hispanic                  119.
 5 2013  Female Other race                119.
 6 2013  Male   Non-Hispanic White        123.
 7 2013  Male   Non-Hispanic Black        129.
 8 2013  Male   Non-Hispanic Asian        123.
 9 2013  Male   Hispanic                  124.
10 2013  Male   Other race                123.
# ℹ 20 more rows
…
Pivot - And Back with pivot_longer()

Our wide columns are named [sex value]_[exam value] so use names_sep = "_" and combine with tidy selection

pivot_longer(nhanes_wider, cols = -race_ethnicity, values_to = "bp_sys_mmhg_once_more",
    names_to = c('sex', 'exam'), names_sep = '_')

# A tibble: 30 × 4
   race_ethnicity     sex    exam  bp_sys_mmhg_once_more
   <fct>              <chr>  <chr>                 <dbl>
 1 Non-Hispanic White Female 2013                   121.
 2 Non-Hispanic White Female 2015                   124.
 3 Non-Hispanic White Female 2017                   125.
 4 Non-Hispanic White Male   2013                   123.
 5 Non-Hispanic White Male   2015                   126.
 6 Non-Hispanic White Male   2017                   127.
 7 Non-Hispanic Black Female 2013                   125.
 8 Non-Hispanic Black Female 2015                   126.
 9 Non-Hispanic Black Female 2017                   131.
10 Non-Hispanic Black Male   2013                   129.
# ℹ 20 more rows
…
billboard has many missing values; no complete data is found anywhere (caps at 65 weeks)

bb_long <- billboard |> 
  pivot_longer(
    cols = starts_with("wk"), 
    names_to = "week", 
    values_to = "rank")

The drop_na argument in pivot_longer() could drop any rows with NA in our new value column…

Missingness - Back to the Billboard

Otherwise rank now has a huge number of missing values (>75%)

# A tibble: 24,092 × 5
   artist track                   date.entered week   rank
   <chr>  <chr>                   <date>       <chr> <dbl>
 1 2 Pac  Baby Don't Cry (Keep... 2000-02-26   wk1      87
 2 2 Pac  Baby Don't Cry (Keep... 2000-02-26   wk2      82
 3 2 Pac  Baby Don't Cry (Keep... 2000-02-26   wk3      72
 4 2 Pac  Baby Don't Cry (Keep... 2000-02-26   wk4      77
 5 2 Pac  Baby Don't Cry (Keep... 2000-02-26   wk5      87
 6 2 Pac  Baby Don't Cry (Keep... 2000-02-26   wk6      94
 7 2 Pac  Baby Don't Cry (Keep... 2000-02-26   wk7      99
 8 2 Pac  Baby Don't Cry (Keep... 2000-02-26   wk8      NA
 9 2 Pac  Baby Don't Cry (Keep... 2000-02-26   wk9      NA
10 2 Pac  Baby Don't Cry (Keep... 2000-02-26   wk10     NA
# ℹ 24,082 more rows

mean(is.na(bb_long$rank))

[1] 0.7797194

Missingness - Dealing with Explicit NAs

We can replace NA with replace_na(), the inverse of na_if()

replace_na(bb_long, replace = list(rank = -888))

# A tibble: 24,092 × 5
   artist track                   date.entered week   rank
   <chr>  <chr>                   <date>       <chr> <dbl>
 1 2 Pac  Baby Don't Cry (Keep... 2000-02-26   wk1      87
 2 2 Pac  Baby Don't Cry (Keep... 2000-02-26   wk2      82
 3 2 Pac  Baby Don't Cry (Keep... 2000-02-26   wk3      72
 4 2 Pac  Baby Don't Cry (Keep... 2000-02-26   wk4      77
 5 2 Pac  Baby Don't Cry (Keep... 2000-02-26   wk5      87
 6 2 Pac  Baby Don't Cry (Keep... 2000-02-26   wk6      94
 7 2 Pac  Baby Don't Cry (Keep... 2000-02-26   wk7      99
 8 2 Pac  Baby Don't Cry (Keep... 2000-02-26   wk8    -888
 9 2 Pac  Baby Don't Cry (Keep... 2000-02-26   wk9    -888
10 2 Pac  Baby Don't Cry (Keep... 2000-02-26   wk10   -888
# ℹ 24,082 more rows

replace needs to be a list if data is a data frame

Missingness - Dealing with Explicit NAs

Drop rows with NA post pivot_longer() with drop_na()

drop_na(bb_long, c(rank))

# A tibble: 5,307 × 5
   artist  track                   date.entered week   rank
   <chr>   <chr>                   <date>       <chr> <dbl>
 1 2 Pac   Baby Don't Cry (Keep... 2000-02-26   wk1      87
 2 2 Pac   Baby Don't Cry (Keep... 2000-02-26   wk2      82
 3 2 Pac   Baby Don't Cry (Keep... 2000-02-26   wk3      72
 4 2 Pac   Baby Don't Cry (Keep... 2000-02-26   wk4      77
 5 2 Pac   Baby Don't Cry (Keep... 2000-02-26   wk5      87
 6 2 Pac   Baby Don't Cry (Keep... 2000-02-26   wk6      94
 7 2 Pac   Baby Don't Cry (Keep... 2000-02-26   wk7      99
 8 2Ge+her The Hardest Part Of ... 2000-09-02   wk1      91
 9 2Ge+her The Hardest Part Of ... 2000-09-02   wk2      87
10 2Ge+her The Hardest Part Of ... 2000-09-02   wk3      92
# ℹ 5,297 more rows
…
Missingness - Working with Implicit NA

This returns us back (almost) to the original bb_long

drop_na(bb_long, c(rank)) |> complete(nesting(artist, track, date.entered), week) |> arrange(artist, track, week)

# A tibble: 20,605 × 5
   artist track                   date.entered week   rank
   <chr>  <chr>                   <date>       <chr> <dbl>
 1 2 Pac  Baby Don't Cry (Keep... 2000-02-26   wk1      87
 2 2 Pac  Baby Don't Cry (Keep... 2000-02-26   wk10     NA
 3 2 Pac  Baby Don't Cry (Keep... 2000-02-26   wk11     NA
 4 2 Pac  Baby Don't Cry (Keep... 2000-02-26   wk12     NA
 5 2 Pac  Baby Don't Cry (Keep... 2000-02-26   wk13     NA
 6 2 Pac  Baby Don't Cry (Keep... 2000-02-26   wk14     NA
 7 2 Pac  Baby Don't Cry (Keep... 2000-02-26   wk15     NA
 8 2 Pac  Baby Don't Cry (Keep... 2000-02-26   wk16     NA
 9 2 Pac  Baby Don't Cry (Keep... 2000-02-26   wk17     NA
10 2 Pac  Baby Don't Cry (Keep... 2000-02-26   wk18     NA
# ℹ 20,595 more rows
…
unite() combines multiple character columns into a single

The separate_ family splits a single column into multiple columns or rows i.e. too much data is in a single column

Don’t forget about coercion!

Strings - Combine with unite()

A convenience function to paste columns together with a sep

bb_long |>
  unite("wk_rank", c(week, rank), sep = "_",  #<<
        remove = FALSE, na.rm = TRUE)

# A tibble: 24,092 × 6
   artist track                   date.entered wk_rank week   rank
   <chr>  <chr>                   <date>       <chr>   <chr> <dbl>
 1 2 Pac  Baby Don't Cry (Keep... 2000-02-26   wk1_87  wk1      87
 2 2 Pac  Baby Don't Cry (Keep... 2000-02-26   wk2_82  wk2      82
 3 2 Pac  Baby Don't Cry (Keep... 2000-02-26   wk3_72  wk3      72
 4 2 Pac  Baby Don't Cry (Keep... 2000-02-26   wk4_77  wk4      77
 5 2 Pac  Baby Don't Cry (Keep... 2000-02-26   wk5_87  wk5      87
 6 2 Pac  Baby Don't Cry (Keep... 2000-02-26   wk6_94  wk6      94
 7 2 Pac  Baby Don't Cry (Keep... 2000-02-26   wk7_99  wk7      99
 8 2 Pac  Baby Don't Cry (Keep... 2000-02-26   wk8     wk8      NA
 9 2 Pac  Baby Don't Cry (Keep... 2000-02-26   wk9     wk9      NA
10 2 Pac  Baby Don't Cry (Keep... 2000-02-26   wk10    wk10     NA
# ℹ 24,082 more rows

Strings - Combine with unite()

remove drops columns after pasting while na.rm will keep NA

bb_long |>
  unite("wk_rank", c(week, rank), sep = "_",
        remove = TRUE, na.rm = FALSE)   #<< Check the defaults!

# A tibble: 24,092 × 4
   artist track                   date.entered wk_rank
   <chr>  <chr>                   <date>       <chr>  
 1 2 Pac  Baby Don't Cry (Keep... 2000-02-26   wk1_87 
 2 2 Pac  Baby Don't Cry (Keep... 2000-02-26   wk2_82 
 3 2 Pac  Baby Don't Cry (Keep... 2000-02-26   wk3_72 
 4 2 Pac  Baby Don't Cry (Keep... 2000-02-26   wk4_77 
 5 2 Pac  Baby Don't Cry (Keep... 2000-02-26   wk5_87 
 6 2 Pac  Baby Don't Cry (Keep... 2000-02-26   wk6_94 
 7 2 Pac  Baby Don't Cry (Keep... 2000-02-26   wk7_99 
 8 2 Pac  Baby Don't Cry (Keep... 2000-02-26   wk8_NA 
 9 2 Pac  Baby Don't Cry (Keep... 2000-02-26   wk9_NA 
10 2 Pac  Baby Don't Cry (Keep... 2000-02-26   wk10_NA
# ℹ 24,082 more rows
…
Strings - separate_wider_

Great when multiple variables exist in a single column

bb_long |>
  separate_wider_delim(cols = date.entered, delim = "-",
                       names = c("year", "month", "day"))

# A tibble: 24,092 × 7
   artist track                   year  month day   week   rank
   <chr>  <chr>                   <chr> <chr> <chr> <chr> <dbl>
 1 2 Pac  Baby Don't Cry (Keep... 2000  02    26    wk1      87
 2 2 Pac  Baby Don't Cry (Keep... 2000  02    26    wk2      82
 3 2 Pac  Baby Don't Cry (Keep... 2000  02    26    wk3      72
 4 2 Pac  Baby Don't Cry (Keep... 2000  02    26    wk4      77
 5 2 Pac  Baby Don't Cry (Keep... 2000  02    26    wk5      87
 6 2 Pac  Baby Don't Cry (Keep... 2000  02    26    wk6      94
 7 2 Pac  Baby Don't Cry (Keep... 2000  02    26    wk7      99
 8 2 Pac  Baby Don't Cry (Keep... 2000  02    26    wk8      NA
 9 2 Pac  Baby Don't Cry (Keep... 2000  02    26    wk9      NA
10 2 Pac  Baby Don't Cry (Keep... 2000  02    26    wk10     NA
# ℹ 24,082 more rows

Strings - separate_wider_

But be mindful of coercion if you need to unite() later

bb_long |>
  separate_wider_delim(cols = date.entered, delim = "-",
                       names = c("year", "month", "day"), cols_remove = FALSE) |>
  unite("new_date", c(year, month, day), sep = "-", remove = FALSE) |> select(-c(artist, track))

# A tibble: 24,092 × 7
   new_date   year  month day   date.entered week   rank
   <chr>      <chr> <chr> <chr> <date>       <chr> <dbl>
 1 2000-02-26 2000  02    26    2000-02-26   wk1      87
 2 2000-02-26 2000  02    26    2000-02-26   wk2      82
 3 2000-02-26 2000  02    26    2000-02-26   wk3      72
 4 2000-02-26 2000  02    26    2000-02-26   wk4      77
 5 2000-02-26 2000  02    26    2000-02-26   wk5      87
 6 2000-02-26 2000  02    26    2000-02-26   wk6      94
 7 2000-02-26 2000  02    26    2000-02-26   wk7      99
 8 2000-02-26 2000  02    26    2000-02-26   wk8      NA
 9 2000-02-26 2000  02    26    2000-02-26   wk9      NA
10 2000-02-26 2000  02    26    2000-02-26   wk10     NA
# ℹ 24,082 more rows
…
