BST680 2024 – Transforming data with dplyr
…
Transformation - Question

What kind of variables do you think albuminura and bp_cat are?

nhanes |> select(c(albuminuria, bp_cat))

# A tibble: 51,761 × 2
   albuminuria bp_cat      
   <chr>       <chr>       
 1 No          Normotensive
 2 No          Hypertension
 3 No          Normotensive
 4 No          Hypertension
 5 No          Uncontrolled
 6 Yes         Uncontrolled
 7 Yes         Hypertension
 8 No          Hypertension
 9 No          Normotensive
10 No          Uncontrolled
# ℹ 51,751 more rows
…
