Getting Started with dplyr – BST680 2024
…
Program of studies designed to assess health and nutritional status in children and adults nationally

Started in the 1960’s and became a continuous program in 1999

Includes demographic, socioeconmoic, dietary, and health-related questions

What does all this mean?

Data Frames - NHANES is Big and Messy

# A tibble: 101,316 × 27
    seqn  exam   psu strata wts_mec_2yr exam_status          age age_group sex  
 * <dbl> <dbl> <dbl>  <dbl>       <dbl> <chr>              <dbl> <chr>     <chr>
 1     1  1999     1      5      10983. interview and exam     2 17 and b… Fema…
 2     2  1999     3      1      28325. interview and exam    77 75 and a… Male 
 3     3  1999     2      7      46192. interview and exam    10 17 and b… Fema…
 4     4  1999     1      2      10251. interview and exam     1 17 and b… Male 
 5     5  1999     2      8      99445. interview and exam    49 45 to 65  Male 
 6     6  1999     2      2      39657. interview and exam    19 18 to 45  Fema…
 7     7  1999     2      4      25525. interview and exam    59 45 to 65  Fema…
 8     8  1999     1      6      31511. interview and exam    13 17 and b… Male 
 9     9  1999     2      9       7576. interview and exam    11 17 and b… Fema…
10    10  1999     1      7      22446. interview and exam    43 18 to 45  Male 
# ℹ 101,306 more rows
# ℹ 18 more variables: race_ethnicity <chr>, education <chr>, income_hh <chr>,
#   pregnant <chr>, bp_sys_mmhg <dbl>, bp_dia_mmhg <dbl>, n_msr_sbp <dbl>,
#   n_msr_dbp <dbl>, bp_controlled <chr>, acr_mgg <dbl>, albuminuria <chr>,
#   chol_hdl_mgdl <dbl>, chol_total_mgdl <dbl>, health_insurance <chr>,
#   bp_high_aware <chr>, bp_meds <chr>, hc_usual_facility <chr>,
#   hc_visit_1yr <chr>
…
