BST680 2024 – Joins and I/O
…
Joins - Mapping to Flights

For our joins, we’ll consider a reduced set of flights called flight

flight <- select(flights, c(year, time_hour, origin, dest, tailnum, carrier))
flight

# A tibble: 336,776 × 6
    year time_hour           origin dest  tailnum carrier
   <int> <dttm>              <chr>  <chr> <chr>   <chr>  
 1  2013 2013-01-01 05:00:00 EWR    IAH   N14228  UA     
 2  2013 2013-01-01 05:00:00 LGA    IAH   N24211  UA     
 3  2013 2013-01-01 05:00:00 JFK    MIA   N619AA  AA     
 4  2013 2013-01-01 05:00:00 JFK    BQN   N804JB  B6     
 5  2013 2013-01-01 06:00:00 LGA    ATL   N668DN  DL     
 6  2013 2013-01-01 05:00:00 EWR    ORD   N39463  UA     
 7  2013 2013-01-01 06:00:00 EWR    FLL   N516JB  B6     
 8  2013 2013-01-01 06:00:00 LGA    IAD   N829AS  EV     
 9  2013 2013-01-01 06:00:00 JFK    MCO   N593JB  B6     
10  2013 2013-01-01 06:00:00 LGA    ORD   N3ALAA  AA     
# ℹ 336,766 more rows
…
Easily the most common, always returns all rows of the parent table x

Joins - left_join() with flight

A left join between flight and arlines

left_join(flight, airlines)

# A tibble: 336,776 × 7
    year time_hour           origin dest  tailnum carrier name                    
   <int> <dttm>              <chr>  <chr> <chr>   <chr>   <chr>                   
 1  2013 2013-01-01 05:00:00 EWR    IAH   N14228  UA      United Air Lines Inc.   
 2  2013 2013-01-01 05:00:00 LGA    IAH   N24211  UA      United Air Lines Inc.   
 3  2013 2013-01-01 05:00:00 JFK    MIA   N619AA  AA      American Airlines Inc.  
 4  2013 2013-01-01 05:00:00 JFK    BQN   N804JB  B6      JetBlue Airways         
 5  2013 2013-01-01 06:00:00 LGA    ATL   N668DN  DL      Delta Air Lines Inc.    
 6  2013 2013-01-01 05:00:00 EWR    ORD   N39463  UA      United Air Lines Inc.   
 7  2013 2013-01-01 06:00:00 EWR    FLL   N516JB  B6      JetBlue Airways         
 8  2013 2013-01-01 06:00:00 LGA    IAD   N829AS  EV      ExpressJet Airlines Inc.
 9  2013 2013-01-01 06:00:00 JFK    MCO   N593JB  B6      JetBlue Airways         
10  2013 2013-01-01 06:00:00 LGA    ORD   N3ALAA  AA      American Airlines Inc.  
# ℹ 336,766 more rows

Joins - left_join() with flight

A left join between flight and weather with a select for temp/wind

flight |> left_join(weather |> select(origin, time_hour, temp, wind_speed))

# A tibble: 336,776 × 8
    year time_hour           origin dest  tailnum carrier  temp wind_speed
   <int> <dttm>              <chr>  <chr> <chr>   <chr>   <dbl>      <dbl>
 1  2013 2013-01-01 05:00:00 EWR    IAH   N14228  UA       39.0       12.7
 2  2013 2013-01-01 05:00:00 LGA    IAH   N24211  UA       39.9       15.0
 3  2013 2013-01-01 05:00:00 JFK    MIA   N619AA  AA       39.0       15.0
 4  2013 2013-01-01 05:00:00 JFK    BQN   N804JB  B6       39.0       15.0
 5  2013 2013-01-01 06:00:00 LGA    ATL   N668DN  DL       39.9       16.1
 6  2013 2013-01-01 05:00:00 EWR    ORD   N39463  UA       39.0       12.7
 7  2013 2013-01-01 06:00:00 EWR    FLL   N516JB  B6       37.9       11.5
 8  2013 2013-01-01 06:00:00 LGA    IAD   N829AS  EV       39.9       16.1
 9  2013 2013-01-01 06:00:00 JFK    MCO   N593JB  B6       37.9       13.8
10  2013 2013-01-01 06:00:00 LGA    ORD   N3ALAA  AA       39.9       16.1
# ℹ 336,766 more rows

Joins - left_join() with flight

A left join between flight and planes with a failed natural join

flight |> left_join(planes)

# A tibble: 336,776 × 13
    year time_hour           origin dest  tailnum carrier type  manufacturer model engines seats speed engine
   <int> <dttm>              <chr>  <chr> <chr>   <chr>   <chr> <chr>        <chr>   <int> <int> <int> <chr> 
 1  2013 2013-01-01 05:00:00 EWR    IAH   N14228  UA      <NA>  <NA>         <NA>       NA    NA    NA <NA>  
 2  2013 2013-01-01 05:00:00 LGA    IAH   N24211  UA      <NA>  <NA>         <NA>       NA    NA    NA <NA>  
 3  2013 2013-01-01 05:00:00 JFK    MIA   N619AA  AA      <NA>  <NA>         <NA>       NA    NA    NA <NA>  
 4  2013 2013-01-01 05:00:00 JFK    BQN   N804JB  B6      <NA>  <NA>         <NA>       NA    NA    NA <NA>  
 5  2013 2013-01-01 06:00:00 LGA    ATL   N668DN  DL      <NA>  <NA>         <NA>       NA    NA    NA <NA>  
 6  2013 2013-01-01 05:00:00 EWR    ORD   N39463  UA      <NA>  <NA>         <NA>       NA    NA    NA <NA>  
 7  2013 2013-01-01 06:00:00 EWR    FLL   N516JB  B6      <NA>  <NA>         <NA>       NA    NA    NA <NA>  
 8  2013 2013-01-01 06:00:00 LGA    IAD   N829AS  EV      <NA>  <NA>         <NA>       NA    NA    NA <NA>  
 9  2013 2013-01-01 06:00:00 JFK    MCO   N593JB  B6      <NA>  <NA>         <NA>       NA    NA    NA <NA>  
10  2013 2013-01-01 06:00:00 LGA    ORD   N3ALAA  AA      <NA>  <NA>         <NA>       NA    NA    NA <NA>  
# ℹ 336,766 more rows

Joins - left_join() with flight

Since year means different things, we want to specify by = tailnum

flight |> left_join(planes, by = "tailnum")

# A tibble: 336,776 × 14
   year.x time_hour           origin dest  tailnum carrier year.y type                    manufacturer     model       engines seats speed engine   
    <int> <dttm>              <chr>  <chr> <chr>   <chr>    <int> <chr>                   <chr>            <chr>         <int> <int> <int> <chr>    
 1   2013 2013-01-01 05:00:00 EWR    IAH   N14228  UA        1999 Fixed wing multi engine BOEING           737-824           2   149    NA Turbo-fan
 2   2013 2013-01-01 05:00:00 LGA    IAH   N24211  UA        1998 Fixed wing multi engine BOEING           737-824           2   149    NA Turbo-fan
 3   2013 2013-01-01 05:00:00 JFK    MIA   N619AA  AA        1990 Fixed wing multi engine BOEING           757-223           2   178    NA Turbo-fan
 4   2013 2013-01-01 05:00:00 JFK    BQN   N804JB  B6        2012 Fixed wing multi engine AIRBUS           A320-232          2   200    NA Turbo-fan
 5   2013 2013-01-01 06:00:00 LGA    ATL   N668DN  DL        1991 Fixed wing multi engine BOEING           757-232           2   178    NA Turbo-fan
 6   2013 2013-01-01 05:00:00 EWR    ORD   N39463  UA        2012 Fixed wing multi engine BOEING           737-924ER         2   191    NA Turbo-fan
 7   2013 2013-01-01 06:00:00 EWR    FLL   N516JB  B6        2000 Fixed wing multi engine AIRBUS INDUSTRIE A320-232          2   200    NA Turbo-fan
 8   2013 2013-01-01 06:00:00 LGA    IAD   N829AS  EV        1998 Fixed wing multi engine CANADAIR         CL-600-2B19       2    55    NA Turbo-fan
 9   2013 2013-01-01 06:00:00 JFK    MCO   N593JB  B6        2004 Fixed wing multi engine AIRBUS           A320-232          2   200    NA Turbo-fan
10   2013 2013-01-01 06:00:00 LGA    ORD   N3ALAA  AA          NA <NA>                    <NA>             <NA>             NA    NA    NA <NA>     
# ℹ 336,766 more rows
…
Far less common than left joins

Joins - right_join() with flight

A right join between flight and planes, equivalent to left_join(airlines, flight) aside from column order

flight |> right_join(planes, by = join_by(tailnum))

# A tibble: 284,170 × 14
   year.x time_hour           origin dest  tailnum carrier year.y type                    manufacturer     model       engines seats speed engine   
    <int> <dttm>              <chr>  <chr> <chr>   <chr>    <int> <chr>                   <chr>            <chr>         <int> <int> <int> <chr>    
 1   2013 2013-01-01 05:00:00 EWR    IAH   N14228  UA        1999 Fixed wing multi engine BOEING           737-824           2   149    NA Turbo-fan
 2   2013 2013-01-01 05:00:00 LGA    IAH   N24211  UA        1998 Fixed wing multi engine BOEING           737-824           2   149    NA Turbo-fan
 3   2013 2013-01-01 05:00:00 JFK    MIA   N619AA  AA        1990 Fixed wing multi engine BOEING           757-223           2   178    NA Turbo-fan
 4   2013 2013-01-01 05:00:00 JFK    BQN   N804JB  B6        2012 Fixed wing multi engine AIRBUS           A320-232          2   200    NA Turbo-fan
 5   2013 2013-01-01 06:00:00 LGA    ATL   N668DN  DL        1991 Fixed wing multi engine BOEING           757-232           2   178    NA Turbo-fan
 6   2013 2013-01-01 05:00:00 EWR    ORD   N39463  UA        2012 Fixed wing multi engine BOEING           737-924ER         2   191    NA Turbo-fan
 7   2013 2013-01-01 06:00:00 EWR    FLL   N516JB  B6        2000 Fixed wing multi engine AIRBUS INDUSTRIE A320-232          2   200    NA Turbo-fan
 8   2013 2013-01-01 06:00:00 LGA    IAD   N829AS  EV        1998 Fixed wing multi engine CANADAIR         CL-600-2B19       2    55    NA Turbo-fan
 9   2013 2013-01-01 06:00:00 JFK    MCO   N593JB  B6        2004 Fixed wing multi engine AIRBUS           A320-232          2   200    NA Turbo-fan
10   2013 2013-01-01 06:00:00 JFK    PBI   N793JB  B6        2011 Fixed wing multi engine AIRBUS           A320-232          2   200    NA Turbo-fan
# ℹ 284,160 more rows
…
Multiple matching returns all combinations so it does make new rows

Joins - inner_join() with flight

Again, combinations are returned even on inner joins if a match is found

flight |> inner_join(airports |> filter(faa %in% c("JFK", "LGA")), 
                     by = join_by(origin == faa))

# A tibble: 215,941 × 13
    year time_hour           origin dest  tailnum carrier name                  lat   lon   alt    tz dst   tzone           
   <int> <dttm>              <chr>  <chr> <chr>   <chr>   <chr>               <dbl> <dbl> <dbl> <dbl> <chr> <chr>           
 1  2013 2013-01-01 05:00:00 LGA    IAH   N24211  UA      La Guardia           40.8 -73.9    22    -5 A     America/New_York
 2  2013 2013-01-01 05:00:00 JFK    MIA   N619AA  AA      John F Kennedy Intl  40.6 -73.8    13    -5 A     America/New_York
 3  2013 2013-01-01 05:00:00 JFK    BQN   N804JB  B6      John F Kennedy Intl  40.6 -73.8    13    -5 A     America/New_York
 4  2013 2013-01-01 06:00:00 LGA    ATL   N668DN  DL      La Guardia           40.8 -73.9    22    -5 A     America/New_York
 5  2013 2013-01-01 06:00:00 LGA    IAD   N829AS  EV      La Guardia           40.8 -73.9    22    -5 A     America/New_York
 6  2013 2013-01-01 06:00:00 JFK    MCO   N593JB  B6      John F Kennedy Intl  40.6 -73.8    13    -5 A     America/New_York
 7  2013 2013-01-01 06:00:00 LGA    ORD   N3ALAA  AA      La Guardia           40.8 -73.9    22    -5 A     America/New_York
 8  2013 2013-01-01 06:00:00 JFK    PBI   N793JB  B6      John F Kennedy Intl  40.6 -73.8    13    -5 A     America/New_York
 9  2013 2013-01-01 06:00:00 JFK    TPA   N657JB  B6      John F Kennedy Intl  40.6 -73.8    13    -5 A     America/New_York
10  2013 2013-01-01 06:00:00 JFK    LAX   N29129  UA      John F Kennedy Intl  40.6 -73.8    13    -5 A     America/New_York
# ℹ 215,931 more rows
…
# A tibble: 3 × 8
  faa   name                  lat   lon   alt    tz dst   tzone           
  <chr> <chr>               <dbl> <dbl> <dbl> <dbl> <chr> <chr>           
1 EWR   Newark Liberty Intl  40.7 -74.2    18    -5 A     America/New_York
2 JFK   John F Kennedy Intl  40.6 -73.8    13    -5 A     America/New_York
3 LGA   La Guardia           40.8 -73.9    22    -5 A     America/New_York

Joins - Semi-join with semi_join()

Or to get the destination airports only

airports |> semi_join(flight, by = join_by(faa == dest))

# A tibble: 101 × 8
   faa   name                                lat    lon   alt    tz dst   tzone            
   <chr> <chr>                             <dbl>  <dbl> <dbl> <dbl> <chr> <chr>            
 1 ABQ   Albuquerque International Sunport  35.0 -107.   5355    -7 A     America/Denver   
 2 ACK   Nantucket Mem                      41.3  -70.1    48    -5 A     America/New_York 
 3 ALB   Albany Intl                        42.7  -73.8   285    -5 A     America/New_York 
 4 ANC   Ted Stevens Anchorage Intl         61.2 -150.    152    -9 A     America/Anchorage
 5 ATL   Hartsfield Jackson Atlanta Intl    33.6  -84.4  1026    -5 A     America/New_York 
 6 AUS   Austin Bergstrom Intl              30.2  -97.7   542    -6 A     America/Chicago  
 7 AVL   Asheville Regional Airport         35.4  -82.5  2165    -5 A     America/New_York 
 8 BDL   Bradley Intl                       41.9  -72.7   173    -5 A     America/New_York 
 9 BGR   Bangor Intl                        44.8  -68.8   192    -5 A     America/New_York 
10 BHM   Birmingham Intl                    33.6  -86.8   644    -6 A     America/Chicago  
# ℹ 91 more rows
…
I/O - A Cautionary Tale

Saving to a non-R file loses meta information e.g. factors

Consider gapminder with country ordered by lifeExp

gapminder_reorder <- gapminder |>
  filter(year == 1997) |>
  mutate(country = fct_reorder(country, desc(lifeExp))) |>
  arrange(country)

print(gapminder_reorder, n=5)

# A tibble: 142 × 6
  country          continent  year lifeExp       pop gdpPercap
  <fct>            <fct>     <int>   <dbl>     <int>     <dbl>
1 Japan            Asia       1997    80.7 125956499    28817.
2 Hong Kong, China Asia       1997    80     6495918    28378.
3 Sweden           Europe     1997    79.4   8897619    25267.
4 Switzerland      Europe     1997    79.4   7193761    32135.
5 Iceland          Europe     1997    79.0    271192    28061.
# ℹ 137 more rows
…
