Characters and Dates – BST680 2024
…
separate_ gave us many options

separate_wider_delim() uses delimiters like unite()

separate_wider_position() splits on fixed positions

We also mentioned separate_wider_regex()

Separate - separate_wider_delim()

Consider some (messy) ambulator BP data

abpm_demo

# A tibble: 2,500 × 2
      id asr            
   <int> <glue>         
 1     1 20_Male_White  
 2     2 30_Female_White
 3     3 30_Male_Black  
 4     4 28_Male_White  
 5     5 28_Male_White  
 6     6 19_Male_Black  
 7     7 29_Female_Black
 8     8 24_Male_Black  
 9     9 22_Female_White
10    10 23_Male_Black  
# ℹ 2,490 more rows

Separate - separate_wider_delim()

As seen, great when multiple variables exist in a single column

abpm_demo |>
  separate_wider_delim(col = asr, delim = "_",
                       names = c("age", "sex", "race"))

# A tibble: 2,500 × 4
      id age   sex    race 
   <int> <chr> <chr>  <chr>
 1     1 20    Male   White
 2     2 30    Female White
 3     3 30    Male   Black
 4     4 28    Male   White
 5     5 28    Male   White
 6     6 19    Male   Black
 7     7 29    Female Black
 8     8 24    Male   Black
 9     9 22    Female White
10    10 23    Male   Black
# ℹ 2,490 more rows

Separate - separate_wider_delim()

But what if our splitting column is a mess?

abpm_demo

# A tibble: 2,500 × 2
      id asr                     
   <int> <glue>                  
 1     1 20_Male.JunkText.White  
 2     2 30_Female.JunkText.White
 3     3 30_Male.JunkText.Black  
 4     4 28_Male.JunkText.White  
 5     5 28_Male.JunkText.White  
 6     6 19_Male.JunkText.Black  
 7     7 29_Female.JunkText.Black
 8     8 24_Male.JunkText.Black  
 9     9 22_Female.JunkText.White
10    10 23_Male.JunkText.Black  
# ℹ 2,490 more rows

Separate - separate_wider_delim()

It takes some effort but we can do it in two (or more steps)

abpm_demo |> 
  separate_wider_delim(asr, names = c("age", "to_split_again"), delim = "_")   #<<

# A tibble: 2,500 × 3
      id age   to_split_again       
   <int> <chr> <chr>                
 1     1 20    Male.JunkText.White  
 2     2 30    Female.JunkText.White
 3     3 30    Male.JunkText.Black  
 4     4 28    Male.JunkText.White  
 5     5 28    Male.JunkText.White  
 6     6 19    Male.JunkText.Black  
 7     7 29    Female.JunkText.Black
 8     8 24    Male.JunkText.Black  
 9     9 22    Female.JunkText.White
10    10 23    Male.JunkText.Black  
# ℹ 2,490 more rows

Separate - separate_wider_delim()

It takes some effort but we can do it in two (or more steps)

abpm_demo |> 
  separate_wider_delim(asr, names = c("age", "to_split_again"), delim = "_") |>
  separate_wider_delim(to_split_again, names = c("sex", "race"), delim = ".JunkText.") #<<

# A tibble: 2,500 × 4
      id age   sex    race 
   <int> <chr> <chr>  <chr>
 1     1 20    Male   White
 2     2 30    Female White
 3     3 30    Male   Black
 4     4 28    Male   White
 5     5 28    Male   White
 6     6 19    Male   Black
 7     7 29    Female Black
 8     8 24    Male   Black
 9     9 22    Female White
10    10 23    Male   Black
# ℹ 2,490 more rows
…
